{
  "extends": [
    "tslint:latest",
    "tslint-config-prettier"
  ],
  "rulesDirectory": ["tslint-plugin-prettier"],
  "rules": {
    "prettier": true,
    "semicolon": false,
    "no-reference": false,
    "interface-name": [false, "never-prefix"],
    "member-access": false,
    "trailing-comma": false,
    "quotemark": false,
    "one-line": false,
    "comment-format": false,
    "arrow-parens": false,
    "no-shadowed-variable": false,
    "object-literal-sort-keys": false,
    "no-console": false,
    "no-submodule-imports": false,
    "no-unused-expression": [true, "allow-fast-null-checks"],
    "max-classes-per-file": [false],
    "no-internal-module": false,
    "no-namespace": false,
    "array-type": false,
    "no-consecutive-blank-lines": false,
    "max-line-length": [false],
    "no-implicit-dependencies": false,
    "ordered-imports": false,
    "no-duplicate-imports": false,
    "no-trailing-whitespace": false,
    "member-ordering": false,
    "no-var-requires": false,
    "object-literal-key-quotes": false
  },
  "defaultSeverity": "error"
}
